,diag,uplo,trans_A,trans_B,trans,side,data_type,node-accelerator-architecture
br.ufc.mdcc.hpcshelf.blas.impl.level1.AMAX,,,,,,,s,
br.ufc.mdcc.hpcshelf.blas.impl.level1.ASUM,,,,,,,s,
br.ufc.mdcc.hpcshelf.blas.impl.level1.AXPY,,,,,,,s,
br.ufc.mdcc.hpcshelf.blas.impl.level1.COPY,,,,,,,s,
br.ufc.mdcc.hpcshelf.blas.impl.level1.DOT,,,,,,,s,s
br.ufc.mdcc.hpcshelf.blas.impl.level1.NRM2,,,,,,,s,
br.ufc.mdcc.hpcshelf.blas.impl.level1.SCAL,,,,,,,s,
br.ufc.mdcc.hpcshelf.blas.impl.level1.SWAP,,,,,,,s,
br.ufc.mdcc.hpcshelf.blas.impl.level2.GEMV,,,,,s,,s,s
br.ufc.mdcc.hpcshelf.blas.impl.level2.GER,,,,,,,s,
br.ufc.mdcc.hpcshelf.blas.impl.level2.HEMV,,s,,,,,s,s
br.ufc.mdcc.hpcshelf.blas.impl.level2.HER,,s,,,,,s,
br.ufc.mdcc.hpcshelf.blas.impl.level2.HER2,,s,,,,,s,
br.ufc.mdcc.hpcshelf.blas.impl.level2.SYMV,,s,,,,,s,s
br.ufc.mdcc.hpcshelf.blas.impl.level2.SYR,,s,,,,,s,
br.ufc.mdcc.hpcshelf.blas.impl.level2.SYR2,,s,,,,,s,
br.ufc.mdcc.hpcshelf.blas.impl.level2.TRMV,s,s,,,s,,s,s
br.ufc.mdcc.hpcshelf.blas.impl.level2.TRSV,s,s,,,s,,s,
br.ufc.mdcc.hpcshelf.blas.impl.level3.GEMM,,,s,s,,,s,s
br.ufc.mdcc.hpcshelf.blas.impl.level3.HEMM,,s,,,,s,s,s
br.ufc.mdcc.hpcshelf.blas.impl.level3.HER2K,,s,,,s,,s,
br.ufc.mdcc.hpcshelf.blas.impl.level3.HERK,,s,,,s,,s,
br.ufc.mdcc.hpcshelf.blas.impl.level3.SYMM,,s,,,,s,s,s
br.ufc.mdcc.hpcshelf.blas.impl.level3.SYR2K,,s,,,s,,s,
br.ufc.mdcc.hpcshelf.blas.impl.level3.SYRK,,s,,,s,,s,
br.ufc.mdcc.hpcshelf.blas.impl.level3.TRAN,,,,,,,s,
br.ufc.mdcc.hpcshelf.blas.impl.level3.TRMM,s,s,s,,,s,s,s
br.ufc.mdcc.hpcshelf.blas.impl.level3.TRSM,s,s,s,,,s,s,